<?xml version="1.0" encoding="UTF-8" standalone="no"?>
<!-- Generator: Gravit.io -->

<svg
   style="isolation:isolate"
   viewBox="0 0 128 128"
   width="128pt"
   height="128pt"
   version="1.1"
   id="svg13"
   sodipodi:docname="gpu-nvidianomodeset.svg"
   inkscape:version="1.2.2 (b0a8486541, 2022-12-01)"
   xmlns:inkscape="http://www.inkscape.org/namespaces/inkscape"
   xmlns:sodipodi="http://sodipodi.sourceforge.net/DTD/sodipodi-0.dtd"
   xmlns="http://www.w3.org/2000/svg"
   xmlns:svg="http://www.w3.org/2000/svg">
  <defs
     id="defs17" />
  <sodipodi:namedview
     id="namedview15"
     pagecolor="#ffffff"
     bordercolor="#666666"
     borderopacity="1.0"
     inkscape:showpageshadow="2"
     inkscape:pageopacity="0.0"
     inkscape:pagecheckerboard="0"
     inkscape:deskcolor="#d1d1d1"
     inkscape:document-units="pt"
     showgrid="false"
     inkscape:zoom="6.0175781"
     inkscape:cx="80.264849"
     inkscape:cy="86.662772"
     inkscape:window-width="2029"
     inkscape:window-height="1470"
     inkscape:window-x="4502"
     inkscape:window-y="98"
     inkscape:window-maximized="0"
     inkscape:current-layer="g11"
     showguides="true">
    <sodipodi:guide
       position="-14.706913,93.476141"
       orientation="0,-1"
       id="guide2400"
       inkscape:locked="false" />
    <sodipodi:guide
       position="33.776046,82.508274"
       orientation="1,0"
       id="guide2402"
       inkscape:locked="false" />
    <sodipodi:guide
       position="94.099316,35.022394"
       orientation="1,0"
       id="guide2404"
       inkscape:locked="false" />
    <sodipodi:guide
       position="19.567672,33.900681"
       orientation="0,-1"
       id="guide2406"
       inkscape:locked="false" />
  </sodipodi:namedview>
  <g
     id="g11">
    <mask
       id="_mask_vws2WMBeTpLpqIDow1dXjxLjVD3FyHaq">
      <path
         d=" M 34 0 Q 34 9.756 34 16 Q 16 16.063 16 34.387 L 16 34.387 L 0 34.387 L 0 46.387 L 16 46.387 L 16 58.387 L 0 58.387 L 0 70.177 L 16 70.177 L 16 82.177 L 0 82.177 L 0 94.177 Q 9.756 94.177 16 94.177 Q 15.99 111.927 34 112 L 34 128 L 46 128 L 46 112 L 58 112 L 58 128 L 70 128 L 70 112 L 82 112 L 82 128 L 94 128 L 94 112 Q 112.031 112.083 112 94.177 Q 118.244 94.177 128 94.177 L 128 82.177 L 112 82.177 L 112 70.177 L 128 70.177 L 128 58.387 L 112 58.387 L 112 46.51 L 128 46.51 L 128 34.51 Q 118.244 34.51 112 34.51 Q 112.045 16.08 94 16 L 94 0 L 82 0 L 82 16 L 70 16 L 70 0 L 58 0 L 58 16 L 46 16 L 46 0 L 34 0 Z "
         fill="white"
         stroke="none"
         id="path2" />
    </mask>
    <path
       d=" M 34 0 Q 34 9.756 34 16 Q 16 16.063 16 34.387 L 16 34.387 L 0 34.387 L 0 46.387 L 16 46.387 L 16 58.387 L 0 58.387 L 0 70.177 L 16 70.177 L 16 82.177 L 0 82.177 L 0 94.177 Q 9.756 94.177 16 94.177 Q 15.99 111.927 34 112 L 34 128 L 46 128 L 46 112 L 58 112 L 58 128 L 70 128 L 70 112 L 82 112 L 82 128 L 94 128 L 94 112 Q 112.031 112.083 112 94.177 Q 118.244 94.177 128 94.177 L 128 82.177 L 112 82.177 L 112 70.177 L 128 70.177 L 128 58.387 L 112 58.387 L 112 46.51 L 128 46.51 L 128 34.51 Q 118.244 34.51 112 34.51 Q 112.045 16.08 94 16 L 94 0 L 82 0 L 82 16 L 70 16 L 70 0 L 58 0 L 58 16 L 46 16 L 46 0 L 34 0 Z "
       fill="rgb(103,103,103)"
       id="path5" />
    <path
       d=" M 34 0 Q 34 9.756 34 16 Q 16 16.063 16 34.387 L 16 34.387 L 0 34.387 L 0 46.387 L 16 46.387 L 16 58.387 L 0 58.387 L 0 70.177 L 16 70.177 L 16 82.177 L 0 82.177 L 0 94.177 Q 9.756 94.177 16 94.177 Q 15.99 111.927 34 112 L 34 128 L 46 128 L 46 112 L 58 112 L 58 128 L 70 128 L 70 112 L 82 112 L 82 128 L 94 128 L 94 112 Q 112.031 112.083 112 94.177 Q 118.244 94.177 128 94.177 L 128 82.177 L 112 82.177 L 112 70.177 L 128 70.177 L 128 58.387 L 112 58.387 L 112 46.51 L 128 46.51 L 128 34.51 Q 118.244 34.51 112 34.51 Q 112.045 16.08 94 16 L 94 0 L 82 0 L 82 16 L 70 16 L 70 0 L 58 0 L 58 16 L 46 16 L 46 0 L 34 0 Z "
       fill="rgb(103,103,103)"
       mask="url(#_mask_vws2WMBeTpLpqIDow1dXjxLjVD3FyHaq)"
       vector-effect="non-scaling-stroke"
       stroke-width="18"
       stroke="rgb(242,242,242)"
       stroke-linejoin="miter"
       stroke-linecap="butt"
       stroke-miterlimit="4"
       id="path7" />
    <text
       xml:space="preserve"
       style="font-weight:bold;font-size:93.1184px;line-height:1.25;font-family:Arial;-inkscape-font-specification:'Arial Bold';stroke-width:1.09123;fill:#ffffff"
       x="22.988756"
       y="106.18017"
       id="text2398"
       transform="scale(1.1336377,0.88211607)"><tspan
         sodipodi:role="line"
         id="tspan2396"
         style="stroke-width:1.09123;fill:#ffffff"
         x="22.988756"
         y="106.18017">N</tspan></text>
  </g>
</svg>
